Physics Data Playground - Untitled
…
library(googlesheets4)

gs4_auth(path=Sys.getenv("SHINY_PROTOCOL"))
personsheet <- gs4_get("1mKxvy3VQx6qOj_c2PBXsiSk9GsTiohvU-Y9uMAEqcuA")

persons <- read_sheet(personsheet)

✔ Reading from "Personnel".

✔ Range 'For https://pluto.coe.fsu.edu/PhysicsDataPlayground/Personnel.html'.

persons

# A tibble: 33 × 13
   Name         University `University abbrv` `Research Studies` `Project Roles`
   <chr>        <chr>      <chr>              <chr>              <chr>          
 1 Valerie Shu… Florida S… FSU                Game Design and U… PI Emeritus (R…
 2 Russell Alm… Florida S… FSU                Game Design and U… PI for final y…
 3 Ryan S. Bak… Universit… UPenn              Affective Support… Co-PI, develop…
 4 Sidney D'Me… Universit… CUBoulder          Affective Support… Co-PI, design …
 5 Seyed Ahmad… Universit… UF                 Game Design and U… Lead developer…
 6 Adam Lamee   Universit… UCF                Game Design and U… Expert in phys…
 7 Ginny Smith  Florida S… FSU                Game Design and U… Project manage…
 8 Jaclyn Ocum… Universit… UPenn              Support Timing, S… Project coordi…
 9 Brandon Boo… Universit… CUBoulder          Support Timing, S… Project coordi…
10 Valdemar Šv… Universit… UPenn              Support Efficacy   Researcher     
# ℹ 23 more rows
# ℹ 8 more variables: `Google Scholar` <chr>, Homepage <chr>,
#   `Other links` <chr>, `Photo link` <chr>, `Project Group` <chr>, IES <dbl>,
#   NSF <dbl>, Gates <dbl>
…
